<?xml version="1.0" encoding="utf-8"?>
<!-- Generator: Adobe Illustrator 23.0.0, SVG Export Plug-In . SVG Version: 6.00 Build 0)  -->
<svg version="1.1" id="Isolation_Mode" xmlns="http://www.w3.org/2000/svg" xmlns:xlink="http://www.w3.org/1999/xlink" x="0px"
	 y="0px" viewBox="0 0 100 125" style="enable-background:new 0 0 100 125;" xml:space="preserve">
<style type="text/css">
	.st0{fill:#0A71BF;}
</style>
<path class="st0" d="M93.8,72.7v2.4c0,1.1-0.9,2.1-2.1,2.1H8.2c-1.1,0-2.1-0.9-2.1-2.1v-2.4c0-1.1,0.9-2.1,2.1-2.1h83.6
	C92.9,70.6,93.8,71.6,93.8,72.7z M91.8,83.6H8.2c-1.1,0-2.1,0.9-2.1,2.1V88c0,1.1,0.9,2.1,2.1,2.1h83.6c1.1,0,2.1-0.9,2.1-2.1v-2.4
	C93.8,84.5,92.9,83.6,91.8,83.6z M66.7,37c0,9.2-7.4,16.6-16.6,16.6S33.4,46.2,33.4,37S40.8,20.4,50,20.4S66.7,27.9,66.7,37z
	 M93.8,12v50c0,1.2-0.9,2.1-2.1,2.1H8.4c-1.2,0-2.1-0.9-2.1-2.1V12c0-1.2,0.9-2.1,2.1-2.1h83.4C92.9,9.9,93.8,10.9,93.8,12z
	 M87.4,25.7c-0.6,0.2-1.2,0.2-1.9,0.2c-4.2,0-7.7-3.4-7.7-7.7c0-0.6,0.1-1.3,0.2-1.9H21.6c0.1,0.5,0.1,0.9,0.1,1.4
	c0,4.2-3.4,7.7-7.7,7.7c-0.5,0-0.9,0-1.3-0.1v23.3c0.4-0.1,0.9-0.1,1.3-0.1c4.2,0,7.7,3.4,7.7,7.7c0,0.5,0,1-0.1,1.4h56.2
	c0-0.3-0.1-0.6-0.1-1c0-4.2,3.4-7.7,7.7-7.7c0.7,0,1.3,0.1,1.9,0.2V25.7H87.4z M79.2,34.2h-6.4c-0.6,0-1,0.5-1,1v3.7
	c0,0.6,0.5,1,1,1h6.4c0.6,0,1-0.5,1-1v-3.7C80.2,34.6,79.7,34.2,79.2,34.2z M27.4,34.2H21c-0.6,0-1,0.5-1,1v3.7c0,0.6,0.5,1,1,1h6.4
	c0.6,0,1-0.5,1-1v-3.7C28.4,34.6,28,34.2,27.4,34.2z"/>
</svg>
